{
  "characterData": {
    "info": {
      "count": 671,
      "pages": 34,
      "next": "https://rickandmortyapi.com/api/character?page=2",
      "prev": null
    },
    "results": [
      {
        "id": 1,
        "name": "Rick Sanchez",
        "status": "Alive",
        "species": "Human",
        "type": "",
        "gender": "Male",
        "origin": {
          "name": "Earth (C-137)",
          "url": "https://rickandmortyapi.com/api/location/1"
        },
        "location": {
          "name": "Earth (Replacement Dimension)",
          "url": "https://rickandmortyapi.com/api/location/20"
        },
        "image": "https://rickandmortyapi.com/api/character/avatar/1.jpeg",
        "episode": ["https://rickandmortyapi.com/api/episode/1"],
        "url": "https://rickandmortyapi.com/api/character/1",
        "created": "2017-11-04T18:48:46.250Z"
      }
    ]
  },
  "episodeData": {
    "info": {
      "count": 41,
      "pages": 3,
      "next": "https://rickandmortyapi.com/api/episode/?page=2",
      "prev": null
    },
    "results": [
      {
        "id": 1,
        "name": "Pilot",
        "air_date": "December 2, 2013",
        "episode": "S01E01",
        "characters": ["https://rickandmortyapi.com/api/character/1"],
        "url": "https://rickandmortyapi.com/api/episode/1",
        "created": "2017-11-10T12:56:33.798Z"
      }
    ]
  }
}
